[
{"NOC":"AFG","region":"Afghanistan","notes":"NA"},
{"NOC":"AHO","region":"Curacao","notes":"Netherlands Antilles"},
{"NOC":"ALB","region":"Albania","notes":"NA"},
{"NOC":"ALG","region":"Algeria","notes":"NA"},
{"NOC":"AND","region":"Andorra","notes":"NA"},
{"NOC":"ANG","region":"Angola","notes":"NA"},
{"NOC":"ANT","region":"Antigua","notes":"Antigua and Barbuda"},
{"NOC":"ANZ","region":"Australia","notes":"Australasia"},
{"NOC":"ARG","region":"Argentina","notes":"NA"},
{"NOC":"ARM","region":"Armenia","notes":"NA"},
{"NOC":"ARU","region":"Aruba","notes":"NA"},
{"NOC":"ASA","region":"American Samoa","notes":"NA"},
{"NOC":"AUS","region":"Australia","notes":"NA"},
{"NOC":"AUT","region":"Austria","notes":"NA"},
{"NOC":"AZE","region":"Azerbaijan","notes":"NA"},
{"NOC":"BAH","region":"Bahamas","notes":"NA"},
{"NOC":"BAN","region":"Bangladesh","notes":"NA"},
{"NOC":"BAR","region":"Barbados","notes":"NA"},
{"NOC":"BDI","region":"Burundi","notes":"NA"},
{"NOC":"BEL","region":"Belgium","notes":"NA"},
{"NOC":"BEN","region":"Benin","notes":"NA"},
{"NOC":"BER","region":"Bermuda","notes":"NA"},
{"NOC":"BHU","region":"Bhutan","notes":"NA"},
{"NOC":"BIH","region":"Bosnia and Herzegovina","notes":"NA"},
{"NOC":"BIZ","region":"Belize","notes":"NA"},
{"NOC":"BLR","region":"Belarus","notes":"NA"},
{"NOC":"BOH","region":"Czech Republic","notes":"Bohemia"},
{"NOC":"BOL","region":"Boliva","notes":"NA"},
{"NOC":"BOT","region":"Botswana","notes":"NA"},
{"NOC":"BRA","region":"Brazil","notes":"NA"},
{"NOC":"BRN","region":"Bahrain","notes":"NA"},
{"NOC":"BRU","region":"Brunei","notes":"NA"},
{"NOC":"BUL","region":"Bulgaria","notes":"NA"},
{"NOC":"BUR","region":"Burkina Faso","notes":"NA"},
{"NOC":"CAF","region":"Central African Republic","notes":"NA"},
{"NOC":"CAM","region":"Cambodia","notes":"NA"},
{"NOC":"CAN","region":"Canada","notes":"NA"},
{"NOC":"CAY","region":"Cayman Islands","notes":"NA"},
{"NOC":"CGO","region":"Republic of Congo","notes":"NA"},
{"NOC":"CHA","region":"Chad","notes":"NA"},
{"NOC":"CHI","region":"Chile","notes":"NA"},
{"NOC":"CHN","region":"China","notes":"NA"},
{"NOC":"CIV","region":"Ivory Coast","notes":"NA"},
{"NOC":"CMR","region":"Cameroon","notes":"NA"},
{"NOC":"COD","region":"Democratic Republic of the Congo","notes":"NA"},
{"NOC":"COK","region":"Cook Islands","notes":"NA"},
{"NOC":"COL","region":"Colombia","notes":"NA"},
{"NOC":"COM","region":"Comoros","notes":"NA"},
{"NOC":"CPV","region":"Cape Verde","notes":"NA"},
{"NOC":"CRC","region":"Costa Rica","notes":"NA"},
{"NOC":"CRO","region":"Croatia","notes":"NA"},
{"NOC":"CRT","region":"Greece","notes":"Crete"},
{"NOC":"CUB","region":"Cuba","notes":"NA"},
{"NOC":"CYP","region":"Cyprus","notes":"NA"},
{"NOC":"CZE","region":"Czech Republic","notes":"NA"},
{"NOC":"DEN","region":"Denmark","notes":"NA"},
{"NOC":"DJI","region":"Djibouti","notes":"NA"},
{"NOC":"DMA","region":"Dominica","notes":"NA"},
{"NOC":"DOM","region":"Dominican Republic","notes":"NA"},
{"NOC":"ECU","region":"Ecuador","notes":"NA"},
{"NOC":"EGY","region":"Egypt","notes":"NA"},
{"NOC":"ERI","region":"Eritrea","notes":"NA"},
{"NOC":"ESA","region":"El Salvador","notes":"NA"},
{"NOC":"ESP","region":"Spain","notes":"NA"},
{"NOC":"EST","region":"Estonia","notes":"NA"},
{"NOC":"ETH","region":"Ethiopia","notes":"NA"},
{"NOC":"EUN","region":"Russia","notes":"NA"},
{"NOC":"FIJ","region":"Fiji","notes":"NA"},
{"NOC":"FIN","region":"Finland","notes":"NA"},
{"NOC":"FRA","region":"France","notes":"NA"},
{"NOC":"FRG","region":"Germany","notes":"NA"},
{"NOC":"FSM","region":"Micronesia","notes":"NA"},
{"NOC":"GAB","region":"Gabon","notes":"NA"},
{"NOC":"GAM","region":"Gambia","notes":"NA"},
{"NOC":"GBR","region":"UK","notes":"NA"},
{"NOC":"GBS","region":"Guinea-Bissau","notes":"NA"},
{"NOC":"GDR","region":"Germany","notes":"NA"},
{"NOC":"GEO","region":"Georgia","notes":"NA"},
{"NOC":"GEQ","region":"Equatorial Guinea","notes":"NA"},
{"NOC":"GER","region":"Germany","notes":"NA"},
{"NOC":"GHA","region":"Ghana","notes":"NA"},
{"NOC":"GRE","region":"Greece","notes":"NA"},
{"NOC":"GRN","region":"Grenada","notes":"NA"},
{"NOC":"GUA","region":"Guatemala","notes":"NA"},
{"NOC":"GUI","region":"Guinea","notes":"NA"},
{"NOC":"GUM","region":"Guam","notes":"NA"},
{"NOC":"GUY","region":"Guyana","notes":"NA"},
{"NOC":"HAI","region":"Haiti","notes":"NA"},
{"NOC":"HKG","region":"China","notes":"Hong Kong"},
{"NOC":"HON","region":"Honduras","notes":"NA"},
{"NOC":"HUN","region":"Hungary","notes":"NA"},
{"NOC":"INA","region":"Indonesia","notes":"NA"},
{"NOC":"IND","region":"India","notes":"NA"},
{"NOC":"IOA","region":"Individual Olympic Athletes","notes":"Individual Olympic Athletes"},
{"NOC":"IRI","region":"Iran","notes":"NA"},
{"NOC":"IRL","region":"Ireland","notes":"NA"},
{"NOC":"IRQ","region":"Iraq","notes":"NA"},
{"NOC":"ISL","region":"Iceland","notes":"NA"},
{"NOC":"ISR","region":"Israel","notes":"NA"},
{"NOC":"ISV","region":"Virgin Islands, US","notes":"Virgin Islands"},
{"NOC":"ITA","region":"Italy","notes":"NA"},
{"NOC":"IVB","region":"Virgin Islands, British","notes":"NA"},
{"NOC":"JAM","region":"Jamaica","notes":"NA"},
{"NOC":"JOR","region":"Jordan","notes":"NA"},
{"NOC":"JPN","region":"Japan","notes":"NA"},
{"NOC":"KAZ","region":"Kazakhstan","notes":"NA"},
{"NOC":"KEN","region":"Kenya","notes":"NA"},
{"NOC":"KGZ","region":"Kyrgyzstan","notes":"NA"},
{"NOC":"KIR","region":"Kiribati","notes":"NA"},
{"NOC":"KOR","region":"South Korea","notes":"NA"},
{"NOC":"KOS","region":"Kosovo","notes":"NA"},
{"NOC":"KSA","region":"Saudi Arabia","notes":"NA"},
{"NOC":"KUW","region":"Kuwait","notes":"NA"},
{"NOC":"LAO","region":"Laos","notes":"NA"},
{"NOC":"LAT","region":"Latvia","notes":"NA"},
{"NOC":"LBA","region":"Libya","notes":"NA"},
{"NOC":"LBR","region":"Liberia","notes":"NA"},
{"NOC":"LCA","region":"Saint Lucia","notes":"NA"},
{"NOC":"LES","region":"Lesotho","notes":"NA"},
{"NOC":"LIB","region":"Lebanon","notes":"NA"},
{"NOC":"LIE","region":"Liechtenstein","notes":"NA"},
{"NOC":"LTU","region":"Lithuania","notes":"NA"},
{"NOC":"LUX","region":"Luxembourg","notes":"NA"},
{"NOC":"MAD","region":"Madagascar","notes":"NA"},
{"NOC":"MAL","region":"Malaysia","notes":"NA"},
{"NOC":"MAR","region":"Morocco","notes":"NA"},
{"NOC":"MAS","region":"Malaysia","notes":"NA"},
{"NOC":"MAW","region":"Malawi","notes":"NA"},
{"NOC":"MDA","region":"Moldova","notes":"NA"},
{"NOC":"MDV","region":"Maldives","notes":"NA"},
{"NOC":"MEX","region":"Mexico","notes":"NA"},
{"NOC":"MGL","region":"Mongolia","notes":"NA"},
{"NOC":"MHL","region":"Marshall Islands","notes":"NA"},
{"NOC":"MKD","region":"Macedonia","notes":"NA"},
{"NOC":"MLI","region":"Mali","notes":"NA"},
{"NOC":"MLT","region":"Malta","notes":"NA"},
{"NOC":"MNE","region":"Montenegro","notes":"NA"},
{"NOC":"MON","region":"Monaco","notes":"NA"},
{"NOC":"MOZ","region":"Mozambique","notes":"NA"},
{"NOC":"MRI","region":"Mauritius","notes":"NA"},
{"NOC":"MTN","region":"Mauritania","notes":"NA"},
{"NOC":"MYA","region":"Myanmar","notes":"NA"},
{"NOC":"NAM","region":"Namibia","notes":"NA"},
{"NOC":"NBO","region":"Malaysia","notes":"North Borneo"},
{"NOC":"NCA","region":"Nicaragua","notes":"NA"},
{"NOC":"NED","region":"Netherlands","notes":"NA"},
{"NOC":"NEP","region":"Nepal","notes":"NA"},
{"NOC":"NFL","region":"Canada","notes":"Newfoundland"},
{"NOC":"NGR","region":"Nigeria","notes":"NA"},
{"NOC":"NIG","region":"Niger","notes":"NA"},
{"NOC":"NOR","region":"Norway","notes":"NA"},
{"NOC":"NRU","region":"Nauru","notes":"NA"},
{"NOC":"NZL","region":"New Zealand","notes":"NA"},
{"NOC":"OMA","region":"Oman","notes":"NA"},
{"NOC":"PAK","region":"Pakistan","notes":"NA"},
{"NOC":"PAN","region":"Panama","notes":"NA"},
{"NOC":"PAR","region":"Paraguay","notes":"NA"},
{"NOC":"PER","region":"Peru","notes":"NA"},
{"NOC":"PHI","region":"Philippines","notes":"NA"},
{"NOC":"PLE","region":"Palestine","notes":"NA"},
{"NOC":"PLW","region":"Palau","notes":"NA"},
{"NOC":"PNG","region":"Papua New Guinea","notes":"NA"},
{"NOC":"POL","region":"Poland","notes":"NA"},
{"NOC":"POR","region":"Portugal","notes":"NA"},
{"NOC":"PRK","region":"North Korea","notes":"NA"},
{"NOC":"PUR","region":"Puerto Rico","notes":"NA"},
{"NOC":"QAT","region":"Qatar","notes":"NA"},
{"NOC":"RHO","region":"Zimbabwe","notes":"NA"},
{"NOC":"ROT","region":"NA","notes":"Refugee Olympic Team"},
{"NOC":"ROU","region":"Romania","notes":"NA"},
{"NOC":"RSA","region":"South Africa","notes":"NA"},
{"NOC":"RUS","region":"Russia","notes":"NA"},
{"NOC":"RWA","region":"Rwanda","notes":"NA"},
{"NOC":"SAA","region":"Germany","notes":"NA"},
{"NOC":"SAM","region":"Samoa","notes":"NA"},
{"NOC":"SCG","region":"Serbia","notes":"Serbia and Montenegro"},
{"NOC":"SEN","region":"Senegal","notes":"NA"},
{"NOC":"SEY","region":"Seychelles","notes":"NA"},
{"NOC":"SIN","region":"Singapore","notes":"NA"},
{"NOC":"SKN","region":"Saint Kitts","notes":"Turks and Caicos Islands"},
{"NOC":"SLE","region":"Sierra Leone","notes":"NA"},
{"NOC":"SLO","region":"Slovenia","notes":"NA"},
{"NOC":"SMR","region":"San Marino","notes":"NA"},
{"NOC":"SOL","region":"Solomon Islands","notes":"NA"},
{"NOC":"SOM","region":"Somalia","notes":"NA"},
{"NOC":"SRB","region":"Serbia","notes":"NA"},
{"NOC":"SRI","region":"Sri Lanka","notes":"NA"},
{"NOC":"SSD","region":"South Sudan","notes":"NA"},
{"NOC":"STP","region":"Sao Tome and Principe","notes":"NA"},
{"NOC":"SUD","region":"Sudan","notes":"NA"},
{"NOC":"SUI","region":"Switzerland","notes":"NA"},
{"NOC":"SUR","region":"Suriname","notes":"NA"},
{"NOC":"SVK","region":"Slovakia","notes":"NA"},
{"NOC":"SWE","region":"Sweden","notes":"NA"},
{"NOC":"SWZ","region":"Swaziland","notes":"NA"},
{"NOC":"SYR","region":"Syria","notes":"NA"},
{"NOC":"TAN","region":"Tanzania","notes":"NA"},
{"NOC":"TCH","region":"Czech Republic","notes":"NA"},
{"NOC":"TGA","region":"Tonga","notes":"NA"},
{"NOC":"THA","region":"Thailand","notes":"NA"},
{"NOC":"TJK","region":"Tajikistan","notes":"NA"},
{"NOC":"TKM","region":"Turkmenistan","notes":"NA"},
{"NOC":"TLS","region":"Timor-Leste","notes":"NA"},
{"NOC":"TOG","region":"Togo","notes":"NA"},
{"NOC":"TPE","region":"Taiwan","notes":"NA"},
{"NOC":"TTO","region":"Trinidad","notes":"Trinidad and Tobago"},
{"NOC":"TUN","region":"Tunisia","notes":"NA"},
{"NOC":"TUR","region":"Turkey","notes":"NA"},
{"NOC":"TUV","region":"NA","notes":"Tuvalu"},
{"NOC":"UAE","region":"United Arab Emirates","notes":"NA"},
{"NOC":"UAR","region":"Syria","notes":"United Arab Republic"},
{"NOC":"UGA","region":"Uganda","notes":"NA"},
{"NOC":"UKR","region":"Ukraine","notes":"NA"},
{"NOC":"UNK","region":"NA","notes":"Unknown"},
{"NOC":"URS","region":"Russia","notes":"NA"},
{"NOC":"URU","region":"Uruguay","notes":"NA"},
{"NOC":"USA","region":"USA","notes":"NA"},
{"NOC":"UZB","region":"Uzbekistan","notes":"NA"},
{"NOC":"VAN","region":"Vanuatu","notes":"NA"},
{"NOC":"VEN","region":"Venezuela","notes":"NA"},
{"NOC":"VIE","region":"Vietnam","notes":"NA"},
{"NOC":"VIN","region":"Saint Vincent","notes":"NA"},
{"NOC":"VNM","region":"Vietnam","notes":"NA"},
{"NOC":"WIF","region":"Trinidad","notes":"West Indies Federation"},
{"NOC":"YAR","region":"Yemen","notes":"North Yemen"},
{"NOC":"YEM","region":"Yemen","notes":"NA"},
{"NOC":"YMD","region":"Yemen","notes":"South Yemen"},
{"NOC":"YUG","region":"Serbia","notes":"Yugoslavia"},
{"NOC":"ZAM","region":"Zambia","notes":"NA"},
{"NOC":"ZIM","region":"Zimbabwe","notes":"NA"}
]
